README
…
The cell line: Wild type or type-101.

The type of treatment applied to the cell type: placebo or Activating Factor 42 (AF42).

A dataset with gene expression values for 11 different treatment concentrations. Gene expression was measured from a concentration of 0 \(\mu\)g/L to 10 \(\mu\)g/L, with observations recorded for every 1 \(\mu\)g/L increase.

Data was initially cleaned manually in excel. The “concentration” and “gene_expression” values from each of the eight experiment blocks were combined in a tidy format with new columns “cell_line” and “block” added by hand. -99 entry for gene expression was also converted by hand to NA in excel.

Within R, we remove the observation with a missing value, then a new column is added to the dataset called cell_type, which contains the name of type of cell that each block (excel tab) represented.

The column treatment was created to replace the column group, and consisted of two levels: placebo and AF42. We factorised the variables cell_type, cell_line and treatment, and removed the block and group columns to obtain the final dataset.

data

# A tibble: 87 × 5
   gene_exp concentration cell_line cell_type treatment
      <dbl>         <dbl> <chr>     <chr>     <chr>    
 1     5.51             0 wild      GL-CsE    placebo  
 2     6.41             1 wild      GL-CsE    placebo  
 3     5.71             2 wild      GL-CsE    placebo  
 4     7.94             3 wild      GL-CsE    placebo  
 5     6.87             4 wild      GL-CsE    placebo  
 6     7.29             5 wild      GL-CsE    placebo  
 7    10.0              6 wild      GL-CsE    placebo  
 8     8.85             7 wild      GL-CsE    placebo  
 9     8.91             8 wild      GL-CsE    placebo  
10     9.68             9 wild      GL-CsE    placebo  
# ℹ 77 more rows
…
